6306_Case_study_1
…
Question 1: How many breweries are present in each state?

#summarize data
Brew=Breweries%>%group_by(State)%>%summarise(TotalBreweries=n())

## `summarise()` ungrouping output (override with `.groups` argument)

Brew

## # A tibble: 51 x 2
##    State TotalBreweries
##    <chr>          <int>
##  1 " AK"              7
##  2 " AL"              3
##  3 " AR"              2
##  4 " AZ"             11
##  5 " CA"             39
##  6 " CO"             47
##  7 " CT"              8
##  8 " DC"              1
##  9 " DE"              2
## 10 " FL"             15
## # ... with 41 more rows
…
